﻿{  
  "Name" : "Manny",
  "Jobs": [
	{ 
	  "Name" : "Prima",
      "Tasks": [
        {
            "$type": "TaskExec.Tasks.EchoTaskDefinition, TaskExec.Tasks",
            "Name": "J1_Randomizing_Alpha_Gamma_Intensifier",
            "Category": null
        }
      ]
    },
	{     
	  "Name" : "Seconda",
      "Tasks": [
        {
            "$type": "TaskExec.Tasks.EchoTaskDefinition, TaskExec.Tasks",
            "Name": "J2_Randomizing_Alpha_Gamma_Intensifier",
            "Category": null
        }
      ]
    }
  ]
}
