﻿{
  "Name" : "Manny",
  "Jobs": [
	{
      "Name" : "Prima",
      "Tasks": [
	    {
          "Name": "EchoMessage",
		  "Description": "1",
          "QueueUntil" : ["_LoopTest>4"],
		  "Params" : {
			"Msg":"Wait until...",
		  }
        },
        {
          "Name": "EchoMessage",
		  "Description": "2",
          "Set" : ["LoopTest"],
		  "Params" : {
			"Msg":"1...",
		  }
        },
        {
          "Name": "EchoMessage",
		  "Description": "3",
          "Set" : ["LoopTest"],
		  "Params" : {
			"Msg":"2...",
		  }
        }, 
		{
          "Name": "EchoMessage",
		  "Description": "4",
          "Set" : ["LoopTest"],
		  "Params" : {
			"Msg":"3...",
		  }
        }, 
		{
          "Name": "EchoMessage",
		  "Description": "5",
          "Set" : ["LoopTest"],
		  "Params" : {
			"Msg":"4...",
		  }
        },
		{
          "Name": "EchoMessage",
		  "Description": "6",
          "Set" : ["LoopTest"],
		  "Params" : {
			"Msg":"5...",
		  }
        }
      ]
    }	
  ]
}
